\relax 
\immediate\closeout\minitoc
\let \MiniTOC =N
\@writefile{toc}{\contentsline {title}{Contribution Title}{1}}
\@writefile{toc}{\authcount {1}}
\@writefile{toc}{\contentsline {author}{Name of First Author and Name of Second Author}{1}}
\@writefile{toc}{\contentsline {section}{\numberline {1}Section Heading}{1}}
\newlabel{sec:1}{{1}{1}}
