\relax 
\immediate\closeout\minitoc
\let \MiniTOC =N
\citation{Jung}
\citation{Franzoi}
\citation{Jamison}
\@writefile{toc}{\contentsline {title}{Self-Awareness in Digital Systems: Augmenting Self-Modification with Introspection to Create Adaptive, Responsive Circuitry}{1}}
\@writefile{toc}{\authcount {2}}
\@writefile{toc}{\contentsline {author}{Nicholas J. Macias \and Lisa J. K. Durbeck}{1}}
\@writefile{toc}{\contentsline {section}{\numberline {1}Introduction}{1}}
\newlabel{sec:1}{{1}{1}}
\citation{PLA}
\citation{FPGA}
\citation{SDR}
\@writefile{lof}{\contentsline {figure}{\numberline {1}{\ignorespaces FPGA being configured by an external device. Here the source and object of the configuration are fundamentally different from each other.}}{2}}
\newlabel{Fig:fpgaconf}{{1}{2}}
\@writefile{lof}{\contentsline {figure}{\numberline {2}{\ignorespaces A multi-plane FPGA. Several configurations can be developed and saved in a configuration memory, and then swapped into the actual configuration memory being used by the FPGA.}}{3}}
\newlabel{Fig:fpgaplanes}{{2}{3}}
\citation{latestbook}
\@writefile{toc}{\contentsline {section}{\numberline {2}Background}{4}}
\newlabel{sec:2}{{2}{4}}
\@writefile{lof}{\contentsline {figure}{\numberline {3}{\ignorespaces Simplified view of a Cell Matrix cell. The four outputs are determined by the four inputs, which specify a single row in the $16 \times 4$ truth table (``TT").}}{4}}
\newlabel{Fig:BG1}{{3}{4}}
\@writefile{lot}{\contentsline {table}{\numberline {1}{\ignorespaces Truth table for a simplified 4-sided cell. Each of the four outputs are completely determined by the combination of the four inputs.}}{5}}
\newlabel{Tab:TT1}{{1}{5}}
\@writefile{lof}{\contentsline {figure}{\numberline {4}{\ignorespaces D flip-flop implemented with two cells. The cell on the left echoes its eastern input ($LOAD=0$) or copies its western input ($D$) to its eastern output ($LOAD=1$). The eastern cell (on the right) re-circulates its western input to its western output, while also copying that input to its eastern output ($Q$).}}{5}}
\newlabel{Fig:BG2}{{4}{5}}
\@writefile{lof}{\contentsline {figure}{\numberline {5}{\ignorespaces A more-complete view of a Cell Matrix cell, showing both C and D inputs and outputs. The D inputs are used to select a row from the cell's 128-bit ($16 \times 8$) truth table, in order to generate its 8 outputs. The C inputs are used to place the cell in configuration mode (``C mode"), wherein its truth table can be read or written by a neighbor.}}{5}}
\newlabel{Fig:BG3}{{5}{5}}
\@writefile{lot}{\contentsline {table}{\numberline {2}{\ignorespaces Truth table for a complete 4-sided cell. Each of the eight outputs are completely determined by the combination of the four inputs.}}{6}}
\newlabel{Tab:TT2}{{2}{6}}
\@writefile{lof}{\contentsline {figure}{\numberline {6}{\ignorespaces An example of cell analysis. The cell on the left (``SOURCE") is examining the truth table of the cell on the right (``TARGET") by controlling TARGET's C input and monitoring TARGET's D output.}}{7}}
\newlabel{Fig:BG4}{{6}{7}}
\@writefile{lof}{\contentsline {figure}{\numberline {7}{\ignorespaces Non-destructive read of a cell. The SOURCE cell re-circulates the truth table as it's read from the TARGET cell, so that TARGET's truth table is unchanged by the reading.}}{7}}
\newlabel{Fig:BG5}{{7}{7}}
\@writefile{lof}{\contentsline {figure}{\numberline {8}{\ignorespaces Non-destructive cell replication. SOURCE reads TARGET's truth table, and simultaneously refreshes TARGET's truth table while also configuring DEST's truth table to be a copy of TARGET's. This effectively makes DEST a clone of TARGET.}}{7}}
\newlabel{Fig:BG6}{{8}{7}}
\citation{nanoarch}
\citation{dna}
\@writefile{lof}{\contentsline {figure}{\numberline {9}{\ignorespaces A two-dimensional $6 \times 6$ Cell Matrix. Each cell communicates only with its immediate neighbors. Edge cells are accessible from outside the matrix.}}{8}}
\newlabel{Fig:BG7}{{9}{8}}
\citation{NMdiss}
\citation{Carmen}
\citation{latestbook}
\citation{wirebuildingpatent}
\@writefile{lof}{\contentsline {figure}{\numberline {10}{\ignorespaces Non-adjacent cell configuration. Cell X is using its neighbor (Y) to configure non-adjacent cell Z.}}{9}}
\newlabel{Fig:BG8}{{10}{9}}
\@writefile{toc}{\contentsline {section}{\numberline {3}Approach}{9}}
\newlabel{sec:3}{{3}{9}}
\@writefile{toc}{\contentsline {subsection}{\numberline {3.1}Multi-Channel Wires}{9}}
\newlabel{subsec:3.1}{{3.1}{9}}
\@writefile{lof}{\contentsline {figure}{\numberline {11}{\ignorespaces A three-channel wire, used for controlled access to a remote cell (``*"). Each channel is a $1 \times n$ collection of $n$ single cells. The PC is used to control *'s D input, and CC is used to control *'s C input. BRK is an auxiliary line, generally used to break or retract the wire.}}{10}}
\newlabel{Fig:AP1}{{11}{10}}
\@writefile{lof}{\contentsline {figure}{\numberline {12}{\ignorespaces Details of the cells comprising the PC and CC. A wire of length 2 is shown. The PC always transmits data to the D input of the Target Cell. The CC transmits a signal from cell to cell; at the end of the channel, the CC also transmits a $1$ to the PC head cell's southern D input, which the PC head cell transmits to the target cell's C input.}}{10}}
\newlabel{Fig:AP2}{{12}{10}}
\citation{latestbook}
\citation{wirebuildingpatent}
\@writefile{lof}{\contentsline {figure}{\numberline {13}{\ignorespaces Construction of an initial PC/CC pair. In each sub-figure, the cell being configured is indicated in bold. First (a) the control circuit configures the northern cell so that it can be used in (b) to configure the southern cell as a CC cell. In (c) the northern cell is reconfigured, this time as a PC cell. After these steps, a wire of length 1 has been built.}}{11}}
\newlabel{Fig:AP3}{{13}{11}}
\citation{NMdiss}
\@writefile{lof}{\contentsline {figure}{\numberline {14}{\ignorespaces Once a wire of length 1 has been constructed, the Control Circuit can use it to configure a non-adjacent Target Cell. By repeating the steps shown in Figure 13\hbox {}, the Control Circuit can extend the wire to a length of 2. This extension can be repeated as many times as needed to make wires of arbitrary length.}}{12}}
\newlabel{Fig:AP4}{{14}{12}}
\@writefile{lof}{\contentsline {figure}{\numberline {15}{\ignorespaces Circuit for turning a 2-channel wire. The PC and CC control the Target Cell. The wire can now continue to extend to the south.}}{12}}
\newlabel{Fig:AP5}{{15}{12}}
\@writefile{lof}{\contentsline {figure}{\numberline {16}{\ignorespaces Example of a break line. The PC/CC pair initially give access to the target cell (``*"). By asserting the BRK line, the second CC cell can be cleared, changing the location of the target cell to the cell marked ``+".}}{13}}
\newlabel{Fig:AP6}{{16}{13}}
\@writefile{lof}{\contentsline {figure}{\numberline {17}{\ignorespaces A breakable wire. The BRK channel is dynamic: whatever its length, the rightmost cell will route its western D input to its northern C output, thus clearing the CC cell above it. This changes the wire's target cell to be the cell directly above the end of the BRK line. The target cell can then be configured to clear the last cell on the BRK line, thus retracting it.}}{14}}
\newlabel{Fig:AP7}{{17}{14}}
\@writefile{toc}{\contentsline {subsection}{\numberline {3.2}Multi-Headed Wires}{14}}
\newlabel{subsec:3.2}{{3.2}{14}}
\@writefile{lof}{\contentsline {figure}{\numberline {18}{\ignorespaces A multi-headed Medusa wire. The PC and CC control access to the D and C inputs of multiple target cells (each labeled ``*").}}{14}}
\newlabel{Fig:AP8}{{18}{14}}
\citation{FEM}
\@writefile{lof}{\contentsline {figure}{\numberline {19}{\ignorespaces Medusa wires built from Medusa wires. In this example, $M0$ was built first (sequentially), and then used to build $M1$ {\em  in parallel}. $M1$ was then used to build $M2$ in parallel. This process can be repeated for more-efficient configuration of a region of cells.}}{15}}
\newlabel{Fig:AP9}{{19}{15}}
\@writefile{lof}{\contentsline {figure}{\numberline {20}{\ignorespaces Parallel build of target circuits and new Medusa wires using Medusa wires: (a) a standard two-channel wire has been used to build Medusa wire MED0; (b) MED0 configures the region to the north into a row of desired target circuits; (c) MED0 configures the region to the south into a new Medusa wire MED1; (d) MED1 configured a second target region; (e) a third Medusa (MED2) is configured; and (f) MED2 configures a third target region.}}{16}}
\newlabel{Fig:AP10}{{20}{16}}
\citation{ringpig}
\@writefile{toc}{\contentsline {subsection}{\numberline {3.3}Analysis of Cells: Intrinsic Operations}{17}}
\newlabel{subsec:3.3}{{3.3}{17}}
\@writefile{toc}{\contentsline {subsection}{\numberline {3.4}Circuits and Techniques for Testing  Single Cells}{17}}
\newlabel{subsec:3.4}{{3.4}{17}}
\@writefile{lof}{\contentsline {figure}{\numberline {21}{\ignorespaces Simple cell-testing arrangement. ``SRC" is able to load test patterns into ``*," send values to *'s D input, and monitor its response on *'s D output.}}{17}}
\newlabel{Fig:IN1}{{21}{17}}
\citation{CMtesting}
\@writefile{toc}{\contentsline {subsection}{\numberline {3.5}Testing Regions of Cells}{18}}
\newlabel{subsec:3.5}{{3.5}{18}}
\@writefile{lof}{\contentsline {figure}{\numberline {22}{\ignorespaces Example of memory defects inside a $16 \times 8$ truth table. Here, there is a short between the $3^{rd}$ and $4^{th}$ rows, in the $6^{th}$ cell on each row. This can't be detected by loading all 0's or all 1's, but would show up when loading a repeating pattern of 8 0's followed by 8 1's.}}{19}}
\newlabel{Fig:IN2}{{22}{19}}
\@writefile{lof}{\contentsline {figure}{\numberline {23}{\ignorespaces Interrogating a cell from different sides. By making a series of turns, a multi-channel wire can access a target cell (``*") from different sides. This provides a greater testing capability, since I/O lines on each side can be examined.}}{20}}
\newlabel{Fig:IN3}{{23}{20}}
\@writefile{toc}{\contentsline {subsection}{\numberline {3.6}Isolating Defects}{20}}
\newlabel{subsec:3.6}{{3.6}{20}}
\@writefile{lof}{\contentsline {figure}{\numberline {24}{\ignorespaces Example of a {\em  guard cell}. The two cells on the left work together to prevent the rightmost cell (``?") from being able to affect the cells on its left. Since the middle cell is always in C mode, it can never assert its own C outputs, and thus can't be used by cell ``?" to configure other cells.}}{20}}
\newlabel{Fig:IN4}{{24}{20}}
\citation{macias2002self}
\@writefile{lof}{\contentsline {figure}{\numberline {25}{\ignorespaces A line of guard cells acts collectively as a {\em  guard wall}, which protects one region of the matrix (to the left of the wall shown here) from the behavior of another region (immediately to the right of the wall shown here).}}{21}}
\newlabel{Fig:IN5}{{25}{21}}
\@writefile{toc}{\contentsline {subsection}{\numberline {3.7}Auto-Location Within the Matrix}{21}}
\newlabel{subsec:3.7}{{3.7}{21}}
\@writefile{lof}{\contentsline {figure}{\numberline {26}{\ignorespaces A closed ring of guard cells creates a {\em  guard ring}, which isolates the behavior of cells (labeled ``?" here) inside the ring from the rest of the matrix.}}{22}}
\newlabel{Fig:IN6}{{26}{22}}
\@writefile{lof}{\contentsline {figure}{\numberline {27}{\ignorespaces A line of identical circuits that can locate themselves within the matrix. Each circuit (which is a collection of cells operating as a single unit) receives an integer from the left, increments it, and outputs the incremented value to the right. The leftmost circuit will be the only one receiving a $0$ (assuming it's either at the edge of the matrix, or is adjacent to a region of cells that is not participating in this behavior). Every circuit will receive a unique value of $X$ from its neighbor (provided enough bits are used in transmitting the integer). This allows circuits to identify themselves with a unique index relative to all other circuits in the collection.}}{23}}
\newlabel{Fig:IN7}{{27}{23}}
\@writefile{lof}{\contentsline {figure}{\numberline {28}{\ignorespaces Detecting the northern edge of the matrix. Even though each cell is configured identically, only one cell (the northernmost one) will receive a $0$ on its northern input. This allows cells to identify when they are located at the top edge of the matrix.}}{23}}
\newlabel{Fig:IN8}{{28}{23}}
\@writefile{lof}{\contentsline {figure}{\numberline {29}{\ignorespaces Another example of edge detection in the matrix. A two-channel wire is grown to the right. At each step, a feedback cell (``F") is configured; a test ping is sent; and an echo is detected. The echo detection will fail when the wire has reached the rightmost edge of the matrix (since there is no cell available for building the feedback cell). This allows a circuit to determine the horizontal width of the matrix. A similar technique can be used to determine the matrix's height.}}{24}}
\newlabel{Fig:IN9}{{29}{24}}
\@writefile{toc}{\contentsline {section}{\numberline {4}Applications}{24}}
\newlabel{sec:4}{{4}{24}}
\@writefile{toc}{\contentsline {subsection}{\numberline {4.1}An Overflow-Proof Counter}{24}}
\newlabel{subsec:4.1}{{4.1}{24}}
\@writefile{lof}{\contentsline {figure}{\numberline {30}{\ignorespaces Basic 3-bit ripple-carry counter. Each T flip flop toggles when the prior bit changes from $1$ to $0$. After 8 ticks, this counter overflows from $111$ to $000$.}}{25}}
\newlabel{Fig:ECbasic1}{{30}{25}}
\@writefile{lof}{\contentsline {figure}{\numberline {31}{\ignorespaces By simply adding a $4^{th}$ flip flop to the left of the MSB, the counter is now extended to a 4-bit counter, and can count to $1111$ before overflowing to $0000$.}}{25}}
\newlabel{Fig:ECbasic2}{{31}{25}}
\@writefile{lof}{\contentsline {figure}{\numberline {32}{\ignorespaces 3-cell implementation of a T flip flop. The clock is applied to the middle cell's eastern D input. The flip flop's output (Q) is sent to the bottom cell's southern D output. It's also copied to the middle cell's western D output, where it can be applied to the clock of another T flip flop positioned directly to its left. The ``S" blocks in the middle cell are one-bit multiplexers.}}{26}}
\newlabel{Fig:ECtff}{{32}{26}}
\@writefile{lof}{\contentsline {figure}{\numberline {33}{\ignorespaces An expanding counter. In addition to an $n$-stage ripple counter (comprised of $n$ T flip flops), there is a set of circuitry located below each flip flop. This circuitry determines if the two MSBs of the count are $11$, and reports that fact to the main control circuit (via Build Control's ``GO" input); it also routes build commands from Build Control to the edge of the flip flop collection, allowing Build Control to construct a new flip flop (in the dashed region). This allows the counter to grow in size dynamically, as necessary to prevent overflow.}}{26}}
\newlabel{Fig:ECexpand}{{33}{26}}
\@writefile{lof}{\contentsline {figure}{\numberline {34}{\ignorespaces Overflow-detection circuitry. The lower cell determines if it is at the leftmost-edge of the collection, and outputs a $1$ to the north if so. The upper cell uses this $1$ signal, along with the counter bit from above and from the right, to determine if an overflow is going to occur soon. The resulting ``OFLOW" signal is routed from west to east through these same cells (via the OR gate). This upper cell also routes the current stage's data to the western cell.}}{27}}
\newlabel{Fig:ECexpand2}{{34}{27}}
\citation{TMR}
\citation{FPGAupset}
\@writefile{toc}{\contentsline {subsection}{\numberline {4.2}title}{28}}
\newlabel{subsec:4.2}{{4.2}{28}}
\@writefile{lof}{\contentsline {figure}{\numberline {35}{\ignorespaces Overview of triple-redundancy system. The CTRL circuit guides the construction of three wires which scan three copies ($C1-C3$) of the target circuit. By comparing the truth tables in each copy's cells, temporary upsets in the truth table memories can be detected and corrected by the CTRL circuit.}}{29}}
\newlabel{Fig:TR}{{35}{29}}
\@writefile{lof}{\contentsline {figure}{\numberline {36}{\ignorespaces Initial steps of cell repair. In figure (a) the cells marked ``*" are about to be read. In (b) the original cells have been replaced with the wire, which is now ready to read the new cells marked ``*". If (c) most of the top three rows have been read and replaced with wire. In (d) the entire top three rows have been read and replaced with wire. The overwritten cells' definitions are stored in the block marked ``Storage" in Figure 35\hbox {}.}}{30}}
\newlabel{Fig:TR1}{{36}{30}}
\@writefile{lof}{\contentsline {figure}{\numberline {37}{\ignorespaces Retraction of the wire. In figure (a) the shaded cells have been replaced with the original (if undamaged) or repaired versions of the original cells. In (b) the wire has been retracted further, with more of the original circuit replaced/repaired. In (c) the entire top 3 rows have been repaired/replaced.}}{31}}
\newlabel{Fig:TR2}{{37}{31}}
\@writefile{lof}{\contentsline {figure}{\numberline {38}{\ignorespaces After the top row has been replaced/repaired, the initial wire moves south 3 spots, and the above process repeats. This continues until the entire 2D region has been replaced/repaired.}}{31}}
\newlabel{Fig:TR8}{{38}{31}}
\@writefile{lof}{\contentsline {figure}{\numberline {39}{\ignorespaces A condition from which the system cannot recover. If a defect occurs in exactly the same bit of the same cell in two of the three copies of the circuit, the scrubbing mechanism will incorrectly modify the third copy to also be defective.}}{32}}
\newlabel{Fig:TR9}{{39}{32}}
\@writefile{toc}{\contentsline {subsection}{\numberline {4.3}title}{32}}
\newlabel{subsec:4.3}{{4.3}{32}}
\@writefile{lof}{\contentsline {figure}{\numberline {40}{\ignorespaces Configuration of a single cell with a multi-channel wire.}}{33}}
\newlabel{Fig:MED1}{{40}{33}}
\@writefile{lof}{\contentsline {figure}{\numberline {41}{\ignorespaces A two-headed wire. The two target cells labeled ``*" can each be configured at the same time.}}{34}}
\newlabel{Fig:MED2}{{41}{34}}
\@writefile{lof}{\contentsline {figure}{\numberline {42}{\ignorespaces A multi-headed wire. Each target cell ``*" is configured at the same time.}}{34}}
\newlabel{Fig:MED3}{{42}{34}}
\@writefile{lof}{\contentsline {figure}{\numberline {43}{\ignorespaces Once an initial row has been configured (sequentially), it can be used to configure a second row {\em  in parallel}. That row can configure a $3^{rd}$ row, and so on, with each row being configured in a fixed amount of time (independent of the length of the row). The entire region can thus be configured in $O(n^2)$ time.}}{34}}
\newlabel{Fig:MED4}{{43}{34}}
\@writefile{lof}{\contentsline {figure}{\numberline {44}{\ignorespaces Three-dimensional Medusa circuit. After configuring a plane of identical circuits, those circuits can configure a second plane in a fixed amount of time (independent of the dimensions of that plane). The entire 3D region can thus be configured in $O(n^3)$ time.}}{35}}
\newlabel{Fig:MED5}{{44}{35}}
\@writefile{lot}{\contentsline {table}{\numberline {3}{\ignorespaces Number of regions configured vs. total configuration time. The initial configurations proceed with linear time complexity, whereas the middle set of configurations accelerates to $O(\sqrt  {n})$. The final set of configurations is $O(\sqrt  [3]{n})$, which is also the time complexity for the entire process}}{36}}
\newlabel{tab:medusatime}{{3}{36}}
\@writefile{lof}{\contentsline {figure}{\numberline {45}{\ignorespaces First 5 steps of an increasingly-parallel build system. In each step, the arrow(s) show where the next build will occur. Note that all steps require the same amount of time to complete.}}{37}}
\newlabel{Fig:MED6}{{45}{37}}
\@writefile{lof}{\contentsline {figure}{\numberline {46}{\ignorespaces Sequence of steps for parallel fault detection. Each square is a multi-cellular region. Shaded areas represent already-tested-and-configured regions. Arrows point to regions being tested and configured. In this example, there are no defects present in the region.}}{38}}
\newlabel{Fig:MED7}{{46}{38}}
\citation{macias2007}
\citation{nanoarch}
\@writefile{lof}{\contentsline {figure}{\numberline {47}{\ignorespaces Sequence of steps for parallel fault detection and isolation. Each square is a multi-cellular region. Shaded regions are already tested and configured. Arrows indicate which regions are being tested and configured. The region marked ``*" contains a defect, which the system attempts to detect and isolate. Bold lines indicate guard walls, which work to isolate the defective region. Steps (a)-(i) show how the algorithm proceeds.}}{39}}
\newlabel{Fig:MED8}{{47}{39}}
\@writefile{toc}{\contentsline {subsection}{\numberline {4.4}title}{40}}
\newlabel{subsec:4.4}{{4.4}{40}}
\@writefile{lof}{\contentsline {figure}{\numberline {48}{\ignorespaces Four cells, each configured to pass a single bit of data from west to east.}}{40}}
\newlabel{Fig:OR1}{{48}{40}}
\@writefile{lof}{\contentsline {figure}{\numberline {49}{\ignorespaces Four cells, each configured to pass a single bit of data from west to east. In this case, the cells are disoriented, so the structure is not able to pass data from west to east.}}{40}}
\newlabel{Fig:OR2}{{49}{40}}
\@writefile{lof}{\contentsline {figure}{\numberline {50}{\ignorespaces By taking into account the disorientation of the cells, they can be configured differently to restore the data-passing capability of this circuit. Each cell's configuration is listed below the cell.}}{41}}
\newlabel{Fig:OR3}{{50}{41}}
\@writefile{lof}{\contentsline {figure}{\numberline {51}{\ignorespaces A Medusa wire being used to configure $n$ cells in parallel. To configure all target cells with the same {\em  behavior}, different configurations need to be loaded into each cell based on its orientation.}}{42}}
\newlabel{Fig:OR4}{{51}{42}}
\@writefile{lof}{\contentsline {figure}{\numberline {52}{\ignorespaces Additional circuitry configured at each head of the Medusa wire. PC, CC and BREAK are the usual channels of the 3-channel wire. ORIENTATION carries two bits that code the current orientation being tested; LOCK is used to record the current value on the ORIENTATION lines; and OVERRIDE causes the CC to be asserted regardless of the ORIENTATION lines' values.}}{42}}
\newlabel{Fig:OR5}{{52}{42}}
\@writefile{lof}{\contentsline {figure}{\numberline {53}{\ignorespaces Circuitry for simultaneous determination and correction of head cell orientation. LOCK is used to load the 2-bit orientation latch with the current orientation ($OR_1$ and $OR_0$) provided PC is receiving a $1$ (echo) from the target cell. If the orientation matches the latched value, the MATCH output is asserted, which causes CC to be routed to the Medusa head. The OVERRIDE signal also causes CC to be routed to the Medusa head.}}{43}}
\newlabel{Fig:OR6}{{53}{43}}
\bibdata{paper}
\bibcite{Jung}{1}
\bibcite{Franzoi}{2}
\bibcite{Jamison}{3}
\bibcite{PLA}{4}
\bibcite{FPGA}{5}
\bibcite{SDR}{6}
\bibcite{latestbook}{7}
\@writefile{toc}{\contentsline {section}{\numberline {5}Conclusions and Future Work}{44}}
\newlabel{sec:5}{{5}{44}}
\@writefile{toc}{\contentsline {section}{References}{44}}
\@mtwritefile{\contentsline {mtchap}{References}{44}}
\bibcite{nanoarch}{8}
\bibcite{dna}{9}
\bibcite{NMdiss}{10}
\bibcite{Carmen}{11}
\bibcite{wirebuildingpatent}{12}
\bibcite{FEM}{13}
\bibcite{ringpig}{14}
\bibcite{CMtesting}{15}
\bibcite{macias2002self}{16}
\bibcite{TMR}{17}
\bibcite{FPGAupset}{18}
\bibcite{macias2007}{19}
\bibstyle{spphys}
\@writefile{toc}{\contentsline {chapter}{Index}{47}}
\immediate\closeout\minitoc
